<?xml version="1.0" encoding="UTF-8" standalone="no"?>
<!-- Created with Inkscape (http://www.inkscape.org/) -->

<svg
   xmlns:dc="http://purl.org/dc/elements/1.1/"
   xmlns:cc="http://creativecommons.org/ns#"
   xmlns:rdf="http://www.w3.org/1999/02/22-rdf-syntax-ns#"
   xmlns:svg="http://www.w3.org/2000/svg"
   xmlns="http://www.w3.org/2000/svg"
   xmlns:xlink="http://www.w3.org/1999/xlink"
   xmlns:sodipodi="http://sodipodi.sourceforge.net/DTD/sodipodi-0.dtd"
   xmlns:inkscape="http://www.inkscape.org/namespaces/inkscape"
   width="640px"
   height="480px"
   id="svg2985"
   version="1.1"
   inkscape:version="0.48.3.1 r9886"
   sodipodi:docname="layout-rate.svg"
   inkscape:export-filename="/home/valentina/exchange/layout-rate.png"
   inkscape:export-xdpi="90"
   inkscape:export-ydpi="90">
  <defs
     id="defs2987" />
  <sodipodi:namedview
     id="base"
     pagecolor="#ffffff"
     bordercolor="#666666"
     borderopacity="1.0"
     inkscape:pageopacity="0.0"
     inkscape:pageshadow="2"
     inkscape:zoom="1.1020833"
     inkscape:cx="320"
     inkscape:cy="240"
     inkscape:current-layer="layer1"
     inkscape:document-units="px"
     showgrid="true"
     inkscape:window-width="1280"
     inkscape:window-height="745"
     inkscape:window-x="-2"
     inkscape:window-y="-3"
     inkscape:window-maximized="1"
     showguides="false"
     inkscape:snap-global="false">
    <inkscape:grid
       type="xygrid"
       id="grid3005" />
  </sodipodi:namedview>
  <metadata
     id="metadata2990">
    <rdf:RDF>
      <cc:Work
         rdf:about="">
        <dc:format>image/svg+xml</dc:format>
        <dc:type
           rdf:resource="http://purl.org/dc/dcmitype/StillImage" />
        <dc:title />
      </cc:Work>
    </rdf:RDF>
  </metadata>
  <g
     id="layer1"
     inkscape:label="Layer 1"
     inkscape:groupmode="layer">
    <text
       xml:space="preserve"
       style="font-size:40px;font-style:normal;font-weight:normal;line-height:125%;letter-spacing:0px;word-spacing:0px;fill:#000000;fill-opacity:1;stroke:none;font-family:Sans"
       x="142.8932"
       y="50.413059"
       id="text3012"
       sodipodi:linespacing="125%"><tspan
         sodipodi:role="line"
         id="tspan3014"
         x="142.8932"
         y="50.413059">Рейтинг игроков</tspan></text>
    <rect
       style="fill:#4f4ff0;fill-opacity:1;fill-rule:evenodd;stroke:#000000;stroke-width:0.94263262px;stroke-linecap:butt;stroke-linejoin:miter;stroke-opacity:1"
       id="rect3016"
       width="499.49783"
       height="294.87616"
       x="71.13166"
       y="61.506123" />
    <rect
       style="fill:#8282fd;fill-opacity:1;fill-rule:evenodd;stroke:#000000;stroke-width:0.95373744px;stroke-linecap:butt;stroke-linejoin:miter;stroke-opacity:1"
       id="rect3020"
       width="500.17215"
       height="46.468086"
       x="71.263077"
       y="370.00259" />
    <path
       sodipodi:type="arc"
       style="fill:#12ce0a;fill-opacity:0.47017547;fill-rule:evenodd;stroke:#000000;stroke-width:1px;stroke-linecap:butt;stroke-linejoin:miter;stroke-opacity:1"
       id="path3022"
       sodipodi:cx="578.91492"
       sodipodi:cy="401.26242"
       sodipodi:rx="53.567375"
       sodipodi:ry="54.212765"
       d="m 632.48229,401.26242 a 53.567375,54.212765 0 1 1 -107.13475,0 53.567375,54.212765 0 1 1 107.13475,0 z"
       transform="translate(-1.334594,17.277883)" />
    <path
       style="fill:#12ce0a;fill-opacity:0.47017547"
       d="m -323.98581,257.98581 c 215.99054,148.00946 107.99527,74.00473 0,0 z"
       id="rect3801"
       inkscape:connector-curvature="0"
       sodipodi:nodetypes="cc" />
    <path
       style="fill:#15ce0a;fill-opacity:1"
       d="m 560.99318,447.8019 45.26783,-28.52346 c -44.60494,-27.76076 -45.82289,-29.57988 -45.26783,-28.52345 z"
       id="rect3804"
       inkscape:connector-curvature="0"
       sodipodi:nodetypes="cccc" />
    <path
       style="fill:#15ce0a;fill-opacity:1;opacity:0"
       d="m 139.73536,468.20417 c -20.04512,0 -36.2949,-16.24978 -36.2949,-36.2949 0,-20.04512 16.24978,-36.29489 36.2949,-36.29489 20.04512,0 36.29489,16.24977 36.29489,36.29489 0,20.04512 -16.24977,36.2949 -36.29489,36.2949 z"
       id="path3807"
       inkscape:connector-curvature="0" />
    <text
       xml:space="preserve"
       style="font-size:40px;font-style:normal;font-weight:normal;line-height:125%;letter-spacing:0px;word-spacing:0px;fill:#000000;fill-opacity:1;stroke:none;font-family:Sans"
       id="text3810"
       sodipodi:linespacing="125%"
       transform="matrix(0,1,-1,0,1011.4573,274.75002)"><textPath
         xlink:href="#path3807"
         id="textPath3814"><tspan
   style="font-size:20px;font-style:normal;font-variant:normal;font-weight:normal;font-stretch:normal;text-align:start;line-height:125%;writing-mode:lr-tb;text-anchor:start;font-family:Sans;-inkscape-font-specification:Sans"
   id="tspan3812">переиграть</tspan></textPath></text>
    <text
       xml:space="preserve"
       style="font-size:40px;font-style:normal;font-weight:normal;line-height:125%;letter-spacing:0px;word-spacing:0px;fill:#000000;fill-opacity:1;stroke:none;font-family:Sans"
       x="88.015121"
       y="99.810966"
       id="text3819"
       sodipodi:linespacing="125%"><tspan
         sodipodi:role="line"
         id="tspan3821"
         x="88.015121"
         y="99.810966"
         style="font-size:20px;font-style:normal;font-variant:normal;font-weight:normal;font-stretch:normal;text-align:start;line-height:125%;writing-mode:lr-tb;text-anchor:start;font-family:Sans;-inkscape-font-specification:Sans">Иванов Иван Иваныч</tspan></text>
    <text
       xml:space="preserve"
       style="font-size:40px;font-style:normal;font-weight:normal;line-height:125%;letter-spacing:0px;word-spacing:0px;fill:#000000;fill-opacity:1;stroke:none;font-family:Sans"
       x="87.392143"
       y="130.55109"
       id="text3819-5"
       sodipodi:linespacing="125%"><tspan
         sodipodi:role="line"
         id="tspan3821-4"
         x="87.392143"
         y="130.55109"
         style="font-size:20px;font-style:normal;font-variant:normal;font-weight:normal;font-stretch:normal;text-align:start;line-height:125%;writing-mode:lr-tb;text-anchor:start;font-family:Sans;-inkscape-font-specification:Sans">Петр Петрович Петров</tspan></text>
    <text
       xml:space="preserve"
       style="font-size:40px;font-style:normal;font-weight:normal;line-height:125%;letter-spacing:0px;word-spacing:0px;fill:#000000;fill-opacity:1;stroke:none;font-family:Sans"
       x="474.84015"
       y="100.6078"
       id="text3819-58"
       sodipodi:linespacing="125%"><tspan
         sodipodi:role="line"
         id="tspan3821-8"
         x="474.84015"
         y="100.6078"
         style="font-size:20px;font-style:normal;font-variant:normal;font-weight:normal;font-stretch:normal;text-align:start;line-height:125%;writing-mode:lr-tb;text-anchor:start;font-family:Sans;-inkscape-font-specification:Sans">400</tspan></text>
    <text
       xml:space="preserve"
       style="font-size:40px;font-style:normal;font-weight:normal;line-height:125%;letter-spacing:0px;word-spacing:0px;fill:#000000;fill-opacity:1;stroke:none;font-family:Sans"
       x="476.50443"
       y="134.31241"
       id="text3819-58-9"
       sodipodi:linespacing="125%"><tspan
         sodipodi:role="line"
         id="tspan3821-8-7"
         x="476.50443"
         y="134.31241"
         style="font-size:20px;font-style:normal;font-variant:normal;font-weight:normal;font-stretch:normal;text-align:start;line-height:125%;writing-mode:lr-tb;text-anchor:start;font-family:Sans;-inkscape-font-specification:Sans">200</tspan></text>
    <text
       xml:space="preserve"
       style="font-size:40px;font-style:normal;font-weight:normal;line-height:125%;letter-spacing:0px;word-spacing:0px;fill:#000000;fill-opacity:1;stroke:none;font-family:Sans"
       x="92.514748"
       y="398.1022"
       id="text3819-5-8"
       sodipodi:linespacing="125%"><tspan
         sodipodi:role="line"
         id="tspan3821-4-6"
         x="92.514748"
         y="398.1022"
         style="font-size:20px;font-style:normal;font-variant:normal;font-weight:normal;font-stretch:normal;text-align:start;line-height:125%;writing-mode:lr-tb;text-anchor:start;font-family:Sans;-inkscape-font-specification:Sans">Текущее имя пользователя</tspan></text>
    <text
       xml:space="preserve"
       style="font-size:40px;font-style:normal;font-weight:normal;line-height:125%;letter-spacing:0px;word-spacing:0px;fill:#000000;fill-opacity:1;stroke:none;font-family:Sans"
       x="480.79715"
       y="396.54303"
       id="text3819-58-9-9"
       sodipodi:linespacing="125%"><tspan
         sodipodi:role="line"
         id="tspan3821-8-7-7"
         x="480.79715"
         y="396.54303"
         style="font-size:20px;font-style:normal;font-variant:normal;font-weight:normal;font-stretch:normal;text-align:start;line-height:125%;writing-mode:lr-tb;text-anchor:start;font-family:Sans;-inkscape-font-specification:Sans">100</tspan></text>
  </g>
</svg>
